{
  "version": "1.0.0-*",
  "frameworks": {
    "net40": {
      "wrappedProject": "../../hocr2pdf.csproj",
      "bin": {
        "assembly": "../../obj/{configuration}/hOcr2Pdf.dll",
        "pdb": "../../obj/{configuration}/hOcr2Pdf.pdb"
      },
      "dependencies": {
        "HtmlAgilityPack": "1.0.0-*",
        "itextsharp": "1.0.0-*"
      }
    }
  }
}